<svg xmlns="http://www.w3.org/2000/svg" width="2.125in" height="2.125in" viewBox="0 0 153 153">
  <title>Pinterest</title>
  <circle cx="76.5" cy="77.425" r="68.4" fill="#fff" />
  <path
    d="M77.214,148.5A72,72,0,1,0,4.5,77.214,72,72,0,0,0,77.214,148.5ZM43.168,50.844c5.137-11.145,14.119-17.5,25.948-20.1a42.75,42.75,0,0,1,9.459-.967c8.462.056,16.263,2.273,22.921,7.724,6.35,5.2,10.394,11.856,11.061,20.048.878,10.8-1.269,21-8.123,29.722-5.559,7.074-12.963,10.57-22,10.068a14.944,14.944,0,0,1-11.222-5.62c-.124-.154-.2-.449-.444-.377-.207.063-.2.348-.253.551-.83,3.249-1.768,6.475-2.468,9.752a50.1,50.1,0,0,1-9.149,19.276q-.659.9-1.348,1.769a.975.975,0,0,1-1.084.484c-.478-.144-.6-.547-.667-.987-.293-2.061-.466-4.133-.658-6.206-.616-6.644.58-13.062,2.175-19.465,1.868-7.5,3.567-15.042,5.361-22.561a3.34,3.34,0,0,0-.206-1.95,20.119,20.119,0,0,1,.118-14.586A12.411,12.411,0,0,1,66.116,52.6c3.462-2.923,8.664-2.672,11.2.6a9.48,9.48,0,0,1,1.576,7.262A60.737,60.737,0,0,1,76.309,70.61c-.715,2.365-1.5,4.713-2.021,7.13-1.341,6.155,3.157,10.293,8.63,10.182A11.821,11.821,0,0,0,90.9,84.455a23.711,23.711,0,0,0,5.932-9.412A44.047,44.047,0,0,0,99.3,62.949a27.92,27.92,0,0,0-.408-8.317C96.944,46.238,91.45,41.538,83.2,39.779a23,23,0,0,0-5.025-.522c-8.233-.026-14.714,2.254-19.927,7.549a24.8,24.8,0,0,0-7.088,15.7,22.94,22.94,0,0,0,.148,5.377,14.023,14.023,0,0,0,3.33,7.327,3.075,3.075,0,0,1,.733,2.942c-.349,1.405-.684,2.813-1.068,4.208-.452,1.642-1.46,2.161-3.053,1.514A15.434,15.434,0,0,1,42.7,75.195,29.11,29.11,0,0,1,43.168,50.844Z" />
</svg>